%YAML 1.1
%TAG !u! tag:unity3d.com,2011:
--- !u!1045 &1
EditorBuildSettings:
  m_ObjectHideFlags: 0
  serializedVersion: 2
  m_Scenes: []
  m_configObjects:
    Unity.XR.Oculus.Settings: {fileID: 11400000, guid: 4fd64ea65df25e54d9392476511a33f7,
      type: 2}
    com.unity.xr.management.loader_settings: {fileID: 11400000, guid: bea49409a7b59844ca0e4b857ec484f5,
      type: 2}
